Suite/Test/Step Name,Browser,Description,Tag,Start time,End time,Duration,Status
Login,Chrome 107.0.0.0,,,2022-12-17 11:42:14,2022-12-17 11:43:32,1m - 18.791s,PASSED
,,,,,,,
Test Cases/Login/TC_LOG_04,Chrome 107.0.0.0,Login using invalid username and invalid password,,2022-12-17 11:42:14,2022-12-17 11:42:36,21.707s,PASSED
"openBrowser("""")",Chrome 107.0.0.0,,,2022-12-17 11:42:15,2022-12-17 11:42:19,4.207s,PASSED
"navigateToUrl(""https://katalon-demo-cura.herokuapp.com/profile.php#login"")",Chrome 107.0.0.0,,,2022-12-17 11:42:19,2022-12-17 11:42:30,10.884s,PASSED
maximizeWindow(),Chrome 107.0.0.0,,,2022-12-17 11:42:30,2022-12-17 11:42:30,0.184s,PASSED
"setText(findTestObject(""Object Repository/Page_CURA Healthcare Service/input_Username_username""), ""username salah"")",Chrome 107.0.0.0,,,2022-12-17 11:42:30,2022-12-17 11:42:31,1.020s,PASSED
"setText(findTestObject(""Object Repository/Page_CURA Healthcare Service/input_Password_password""), ""password salah"")",Chrome 107.0.0.0,,,2022-12-17 11:42:31,2022-12-17 11:42:32,0.888s,PASSED
"click(findTestObject(""Object Repository/Page_CURA Healthcare Service/button_Login""))",Chrome 107.0.0.0,,,2022-12-17 11:42:32,2022-12-17 11:42:33,1.185s,PASSED
"verifyElementText(findTestObject(""Page_CURA Healthcare Service/p_Login failed Please ensure the username and password are valid""), ""Login failed! Please ensure the username and password are valid."")",Chrome 107.0.0.0,,,2022-12-17 11:42:33,2022-12-17 11:42:34,0.495s,PASSED
delay(2),Chrome 107.0.0.0,,,2022-12-17 11:42:34,2022-12-17 11:42:36,2.034s,PASSED
closeBrowser(),Chrome 107.0.0.0,,,2022-12-17 11:42:36,2022-12-17 11:42:36,0.168s,PASSED
,,,,,,,
Test Cases/Login/TC_LOG_02,Chrome 107.0.0.0,Login using invalid username and valid password,,2022-12-17 11:42:36,2022-12-17 11:42:55,19.025s,PASSED
"openBrowser("""")",Chrome 107.0.0.0,,,2022-12-17 11:42:36,2022-12-17 11:42:39,2.481s,PASSED
"navigateToUrl(""https://katalon-demo-cura.herokuapp.com/profile.php#login"")",Chrome 107.0.0.0,,,2022-12-17 11:42:39,2022-12-17 11:42:49,10.250s,PASSED
maximizeWindow(),Chrome 107.0.0.0,,,2022-12-17 11:42:49,2022-12-17 11:42:49,0.150s,PASSED
"setText(findTestObject(""Object Repository/Page_CURA Healthcare Service/input_Username_username""), ""username salah"")",Chrome 107.0.0.0,,,2022-12-17 11:42:49,2022-12-17 11:42:50,0.960s,PASSED
"setText(findTestObject(""Object Repository/Page_CURA Healthcare Service/input_Password_password""), ""ThisIsNotAPassword"")",Chrome 107.0.0.0,,,2022-12-17 11:42:50,2022-12-17 11:42:51,0.869s,PASSED
"click(findTestObject(""Object Repository/Page_CURA Healthcare Service/button_Login""))",Chrome 107.0.0.0,,,2022-12-17 11:42:51,2022-12-17 11:42:52,1.216s,PASSED
"verifyElementText(findTestObject(""Page_CURA Healthcare Service/p_Login failed Please ensure the username and password are valid""), ""Login failed! Please ensure the username and password are valid."")",Chrome 107.0.0.0,,,2022-12-17 11:42:52,2022-12-17 11:42:53,0.506s,PASSED
delay(2),Chrome 107.0.0.0,,,2022-12-17 11:42:53,2022-12-17 11:42:55,2.006s,PASSED
closeBrowser(),Chrome 107.0.0.0,,,2022-12-17 11:42:55,2022-12-17 11:42:55,0.086s,PASSED
,,,,,,,
Test Cases/Login/TC_LOG_03,Chrome 107.0.0.0,Login using  valid username and invalid password,,2022-12-17 11:42:55,2022-12-17 11:43:14,19.020s,PASSED
"openBrowser("""")",Chrome 107.0.0.0,,,2022-12-17 11:42:55,2022-12-17 11:42:58,2.478s,PASSED
"navigateToUrl(""https://katalon-demo-cura.herokuapp.com/profile.php#login"")",Chrome 107.0.0.0,,,2022-12-17 11:42:58,2022-12-17 11:43:08,10.733s,PASSED
maximizeWindow(),Chrome 107.0.0.0,,,2022-12-17 11:43:08,2022-12-17 11:43:09,0.127s,PASSED
"setText(findTestObject(""Object Repository/Page_CURA Healthcare Service/input_Username_username""), ""John Doe"")",Chrome 107.0.0.0,,,2022-12-17 11:43:09,2022-12-17 11:43:09,0.825s,PASSED
"setText(findTestObject(""Object Repository/Page_CURA Healthcare Service/input_Password_password""), ""password salah"")",Chrome 107.0.0.0,,,2022-12-17 11:43:09,2022-12-17 11:43:10,0.851s,PASSED
"click(findTestObject(""Object Repository/Page_CURA Healthcare Service/button_Login""))",Chrome 107.0.0.0,,,2022-12-17 11:43:10,2022-12-17 11:43:11,1.102s,PASSED
"verifyElementText(findTestObject(""Page_CURA Healthcare Service/p_Login failed Please ensure the username and password are valid""), ""Login failed! Please ensure the username and password are valid."")",Chrome 107.0.0.0,,,2022-12-17 11:43:11,2022-12-17 11:43:12,0.409s,PASSED
delay(2),Chrome 107.0.0.0,,,2022-12-17 11:43:12,2022-12-17 11:43:14,2.007s,PASSED
closeBrowser(),Chrome 107.0.0.0,,,2022-12-17 11:43:14,2022-12-17 11:43:14,0.091s,PASSED
,,,,,,,
Test Cases/Login/TC_LOG_01,Chrome 107.0.0.0,Login using valid username and valid password,,2022-12-17 11:43:14,2022-12-17 11:43:32,18.418s,PASSED
"openBrowser("""")",Chrome 107.0.0.0,,,2022-12-17 11:43:14,2022-12-17 11:43:17,2.480s,PASSED
"navigateToUrl(""https://katalon-demo-cura.herokuapp.com/profile.php#login"")",Chrome 107.0.0.0,,,2022-12-17 11:43:17,2022-12-17 11:43:27,9.971s,PASSED
maximizeWindow(),Chrome 107.0.0.0,,,2022-12-17 11:43:27,2022-12-17 11:43:27,0.124s,PASSED
"setText(findTestObject(""Object Repository/Page_CURA Healthcare Service/input_Username_username""), ""John Doe"")",Chrome 107.0.0.0,,,2022-12-17 11:43:27,2022-12-17 11:43:28,1.027s,PASSED
"setEncryptedText(findTestObject(""Object Repository/Page_CURA Healthcare Service/input_Password_password""), ""g3/DOGG74jC3Flrr3yH+3D/yKbOqqUNM"")",Chrome 107.0.0.0,,,2022-12-17 11:43:28,2022-12-17 11:43:29,0.730s,PASSED
"click(findTestObject(""Object Repository/Page_CURA Healthcare Service/button_Login""))",Chrome 107.0.0.0,,,2022-12-17 11:43:29,2022-12-17 11:43:30,1.097s,PASSED
"verifyElementText(findTestObject(""Page_CURA Healthcare Service/button_Book Appointment""), ""Book Appointment"")",Chrome 107.0.0.0,,,2022-12-17 11:43:30,2022-12-17 11:43:30,0.416s,PASSED
delay(2),Chrome 107.0.0.0,,,2022-12-17 11:43:30,2022-12-17 11:43:32,2.010s,PASSED
closeBrowser(),Chrome 107.0.0.0,,,2022-12-17 11:43:32,2022-12-17 11:43:32,0.084s,PASSED
