Suite/Test/Step Name,Browser,Description,Tag,Start time,End time,Duration,Status
History,Chrome 107.0.0.0,,,2022-12-17 12:13:59,2022-12-17 12:14:24,24.952s,PASSED
,,,,,,,
Test Cases/History/TC_HIS_01,Chrome 107.0.0.0,Show Appointment History,,2022-12-17 12:13:59,2022-12-17 12:14:24,24.362s,PASSED
"openBrowser("""")",Chrome 107.0.0.0,,,2022-12-17 12:14:00,2022-12-17 12:14:04,4.139s,PASSED
"navigateToUrl(""https://katalon-demo-cura.herokuapp.com/profile.php#login"")",Chrome 107.0.0.0,,,2022-12-17 12:14:04,2022-12-17 12:14:16,11.429s,PASSED
maximizeWindow(),Chrome 107.0.0.0,,,2022-12-17 12:14:16,2022-12-17 12:14:16,0.156s,PASSED
"setText(findTestObject(""Object Repository/Page_CURA Healthcare Service/input_Username_username""), ""John Doe"")",Chrome 107.0.0.0,,,2022-12-17 12:14:16,2022-12-17 12:14:17,0.953s,PASSED
"setEncryptedText(findTestObject(""Object Repository/Page_CURA Healthcare Service/input_Password_password""), ""g3/DOGG74jC3Flrr3yH+3D/yKbOqqUNM"")",Chrome 107.0.0.0,,,2022-12-17 12:14:17,2022-12-17 12:14:17,0.668s,PASSED
"click(findTestObject(""Object Repository/Page_CURA Healthcare Service/button_Login""))",Chrome 107.0.0.0,,,2022-12-17 12:14:17,2022-12-17 12:14:19,1.277s,PASSED
"setText(findTestObject(""Object Repository/Page_CURA Healthcare Service/input_Visit Date (Required)_visit_date""), ""28/12/2022"")",Chrome 107.0.0.0,,,2022-12-17 12:14:19,2022-12-17 12:14:20,1.069s,PASSED
"click(findTestObject(""Object Repository/Page_CURA Healthcare Service/button_Book Appointment""))",Chrome 107.0.0.0,,,2022-12-17 12:14:20,2022-12-17 12:14:21,1.040s,PASSED
"click(findTestObject(""Object Repository/Page_CURA Healthcare Service/a_Go to Homepage""))",Chrome 107.0.0.0,,,2022-12-17 12:14:21,2022-12-17 12:14:22,0.930s,PASSED
"click(findTestObject(""Object Repository/Page_CURA Healthcare Service/a_CURA Healthcare_menu-toggle""))",Chrome 107.0.0.0,,,2022-12-17 12:14:22,2022-12-17 12:14:22,0.541s,PASSED
"click(findTestObject(""Object Repository/Page_CURA Healthcare Service/a_History""))",Chrome 107.0.0.0,,,2022-12-17 12:14:22,2022-12-17 12:14:23,0.972s,PASSED
"verifyElementText(findTestObject(""Page_CURA Healthcare Service/h2_History""), ""History"")",Chrome 107.0.0.0,,,2022-12-17 12:14:23,2022-12-17 12:14:24,0.426s,PASSED
closeBrowser(),Chrome 107.0.0.0,,,2022-12-17 12:14:24,2022-12-17 12:14:24,0.098s,PASSED
