Suite/Test/Step Name,Browser,Description,Tag,Start time,End time,Duration,Status
Login,Chrome 107.0.0.0,,,2022-12-18 11:29:41,2022-12-18 11:31:43,2m - 1.933s,PASSED
,,,,,,,
Test Cases/Login/TC_LOG_01,Chrome 107.0.0.0,Login using valid username and valid password,,2022-12-18 11:29:41,2022-12-18 11:30:31,49.923s,PASSED
"openBrowser("""")",Chrome 107.0.0.0,,,2022-12-18 11:29:42,2022-12-18 11:29:48,5.566s,PASSED
"navigateToUrl(""https://katalon-demo-cura.herokuapp.com/profile.php#login"")",Chrome 107.0.0.0,,,2022-12-18 11:29:48,2022-12-18 11:30:25,36.983s,PASSED
maximizeWindow(),Chrome 107.0.0.0,,,2022-12-18 11:30:25,2022-12-18 11:30:25,0.178s,PASSED
"setText(findTestObject(""Object Repository/Page_CURA Healthcare Service/input_Username_username""), ""John Doe"")",Chrome 107.0.0.0,,,2022-12-18 11:30:25,2022-12-18 11:30:26,1.139s,PASSED
"setEncryptedText(findTestObject(""Object Repository/Page_CURA Healthcare Service/input_Password_password""), ""g3/DOGG74jC3Flrr3yH+3D/yKbOqqUNM"")",Chrome 107.0.0.0,,,2022-12-18 11:30:26,2022-12-18 11:30:27,0.902s,PASSED
"click(findTestObject(""Object Repository/Page_CURA Healthcare Service/button_Login""))",Chrome 107.0.0.0,,,2022-12-18 11:30:27,2022-12-18 11:30:29,1.616s,PASSED
"verifyElementText(findTestObject(""Page_CURA Healthcare Service/button_Book Appointment""), ""Book Appointment"")",Chrome 107.0.0.0,,,2022-12-18 11:30:29,2022-12-18 11:30:29,0.471s,PASSED
delay(2),Chrome 107.0.0.0,,,2022-12-18 11:30:29,2022-12-18 11:30:31,2.043s,PASSED
closeBrowser(),Chrome 107.0.0.0,,,2022-12-18 11:30:31,2022-12-18 11:30:31,0.175s,PASSED
,,,,,,,
Test Cases/Login/TC_LOG_03,Chrome 107.0.0.0,Login using  valid username and invalid password,,2022-12-18 11:30:31,2022-12-18 11:30:57,25.309s,PASSED
"openBrowser("""")",Chrome 107.0.0.0,,,2022-12-18 11:30:32,2022-12-18 11:30:35,2.951s,PASSED
"navigateToUrl(""https://katalon-demo-cura.herokuapp.com/profile.php#login"")",Chrome 107.0.0.0,,,2022-12-18 11:30:35,2022-12-18 11:30:51,15.882s,PASSED
maximizeWindow(),Chrome 107.0.0.0,,,2022-12-18 11:30:51,2022-12-18 11:30:51,0.133s,PASSED
"setText(findTestObject(""Object Repository/Page_CURA Healthcare Service/input_Username_username""), ""John Doe"")",Chrome 107.0.0.0,,,2022-12-18 11:30:51,2022-12-18 11:30:52,0.986s,PASSED
"setText(findTestObject(""Object Repository/Page_CURA Healthcare Service/input_Password_password""), ""password salah"")",Chrome 107.0.0.0,,,2022-12-18 11:30:52,2022-12-18 11:30:53,0.853s,PASSED
"click(findTestObject(""Object Repository/Page_CURA Healthcare Service/button_Login""))",Chrome 107.0.0.0,,,2022-12-18 11:30:53,2022-12-18 11:30:54,1.342s,PASSED
"verifyElementText(findTestObject(""Page_CURA Healthcare Service/p_Login failed Please ensure the username and password are valid""), ""Login failed! Please ensure the username and password are valid."")",Chrome 107.0.0.0,,,2022-12-18 11:30:54,2022-12-18 11:30:55,0.543s,PASSED
delay(2),Chrome 107.0.0.0,,,2022-12-18 11:30:55,2022-12-18 11:30:57,2.007s,PASSED
closeBrowser(),Chrome 107.0.0.0,,,2022-12-18 11:30:57,2022-12-18 11:30:57,0.087s,PASSED
,,,,,,,
Test Cases/Login/TC_LOG_02,Chrome 107.0.0.0,Login using invalid username and valid password,,2022-12-18 11:30:57,2022-12-18 11:31:17,20.182s,PASSED
"openBrowser("""")",Chrome 107.0.0.0,,,2022-12-18 11:30:57,2022-12-18 11:31:00,2.779s,PASSED
"navigateToUrl(""https://katalon-demo-cura.herokuapp.com/profile.php#login"")",Chrome 107.0.0.0,,,2022-12-18 11:31:00,2022-12-18 11:31:11,11.329s,PASSED
maximizeWindow(),Chrome 107.0.0.0,,,2022-12-18 11:31:11,2022-12-18 11:31:11,0.137s,PASSED
"setText(findTestObject(""Object Repository/Page_CURA Healthcare Service/input_Username_username""), ""username salah"")",Chrome 107.0.0.0,,,2022-12-18 11:31:11,2022-12-18 11:31:12,0.865s,PASSED
"setText(findTestObject(""Object Repository/Page_CURA Healthcare Service/input_Password_password""), ""ThisIsNotAPassword"")",Chrome 107.0.0.0,,,2022-12-18 11:31:12,2022-12-18 11:31:13,0.854s,PASSED
"click(findTestObject(""Object Repository/Page_CURA Healthcare Service/button_Login""))",Chrome 107.0.0.0,,,2022-12-18 11:31:13,2022-12-18 11:31:14,1.196s,PASSED
"verifyElementText(findTestObject(""Page_CURA Healthcare Service/p_Login failed Please ensure the username and password are valid""), ""Login failed! Please ensure the username and password are valid."")",Chrome 107.0.0.0,,,2022-12-18 11:31:14,2022-12-18 11:31:15,0.554s,PASSED
delay(2),Chrome 107.0.0.0,,,2022-12-18 11:31:15,2022-12-18 11:31:17,2.005s,PASSED
closeBrowser(),Chrome 107.0.0.0,,,2022-12-18 11:31:17,2022-12-18 11:31:17,0.086s,PASSED
,,,,,,,
Test Cases/Login/TC_LOG_04,Chrome 107.0.0.0,Login using invalid username and invalid password,,2022-12-18 11:31:17,2022-12-18 11:31:43,25.774s,PASSED
"openBrowser("""")",Chrome 107.0.0.0,,,2022-12-18 11:31:17,2022-12-18 11:31:20,2.892s,PASSED
"navigateToUrl(""https://katalon-demo-cura.herokuapp.com/profile.php#login"")",Chrome 107.0.0.0,,,2022-12-18 11:31:20,2022-12-18 11:31:37,16.762s,PASSED
maximizeWindow(),Chrome 107.0.0.0,,,2022-12-18 11:31:37,2022-12-18 11:31:37,0.128s,PASSED
"setText(findTestObject(""Object Repository/Page_CURA Healthcare Service/input_Username_username""), ""username salah"")",Chrome 107.0.0.0,,,2022-12-18 11:31:37,2022-12-18 11:31:38,0.911s,PASSED
"setText(findTestObject(""Object Repository/Page_CURA Healthcare Service/input_Password_password""), ""password salah"")",Chrome 107.0.0.0,,,2022-12-18 11:31:38,2022-12-18 11:31:39,0.964s,PASSED
"click(findTestObject(""Object Repository/Page_CURA Healthcare Service/button_Login""))",Chrome 107.0.0.0,,,2022-12-18 11:31:39,2022-12-18 11:31:40,1.213s,PASSED
"verifyElementText(findTestObject(""Page_CURA Healthcare Service/p_Login failed Please ensure the username and password are valid""), ""Login failed! Please ensure the username and password are valid."")",Chrome 107.0.0.0,,,2022-12-18 11:31:40,2022-12-18 11:31:41,0.423s,PASSED
delay(2),Chrome 107.0.0.0,,,2022-12-18 11:31:41,2022-12-18 11:31:43,2.006s,PASSED
closeBrowser(),Chrome 107.0.0.0,,,2022-12-18 11:31:43,2022-12-18 11:31:43,0.087s,PASSED
